<?xml version="1.0" encoding="utf-8"?>
<COLLADA xmlns="http://www.collada.org/2005/11/COLLADASchema" version="1.4.1" xmlns:xsi="http://www.w3.org/2001/XMLSchema-instance">
  <asset>
    <contributor>
      <author>Blender User</author>
      <authoring_tool>Blender 2.79.0 commit date:2017-09-11, commit time:10:43, hash:5bd8ac9</authoring_tool>
    </contributor>
    <created>2018-04-25T11:39:42</created>
    <modified>2018-04-25T11:39:42</modified>
    <unit name="meter" meter="1"/>
    <up_axis>Z_UP</up_axis>
  </asset>
  <library_images/>
  <library_geometries>
    <geometry id="Octa_prim-mesh" name="Octa_prim">
      <mesh>
        <source id="Octa_prim-mesh-positions">
          <float_array id="Octa_prim-mesh-positions-array" count="18">1 0 0 -1 0 0 0 1 0 0 -1 0 0 0 1 0 0 -1</float_array>
          <technique_common>
            <accessor source="#Octa_prim-mesh-positions-array" count="6" stride="3">
              <param name="X" type="float"/>
              <param name="Y" type="float"/>
              <param name="Z" type="float"/>
            </accessor>
          </technique_common>
        </source>
        <source id="Octa_prim-mesh-normals">
          <float_array id="Octa_prim-mesh-normals-array" count="24">0.5773503 0.5773503 0.5773503 -0.5773503 0.5773503 0.5773503 -0.5773503 -0.5773503 0.5773503 0.5773503 -0.5773503 0.5773503 0.5773503 0.5773503 -0.5773503 -0.5773503 0.5773503 -0.5773503 -0.5773503 -0.5773503 -0.5773503 0.5773503 -0.5773503 -0.5773503</float_array>
          <technique_common>
            <accessor source="#Octa_prim-mesh-normals-array" count="8" stride="3">
              <param name="X" type="float"/>
              <param name="Y" type="float"/>
              <param name="Z" type="float"/>
            </accessor>
          </technique_common>
        </source>
        <source id="Octa_prim-mesh-map-0">
          <float_array id="Octa_prim-mesh-map-0-array" count="48">0.5 0.5 1 0.5 0.5 1 0.5 0.5 0.5 1 0 0.5 0.5 0.5 0 0.5 0.5 0 0.5 0.5 0.5 0 1 0.5 0.5 0.5 0.5 1 1 0.5 0.5 0.5 0 0.5 0.5 1 0.5 0.5 0.5 0 0 0.5 0.5 0.5 1 0.5 0.5 0</float_array>
          <technique_common>
            <accessor source="#Octa_prim-mesh-map-0-array" count="24" stride="2">
              <param name="S" type="float"/>
              <param name="T" type="float"/>
            </accessor>
          </technique_common>
        </source>
        <vertices id="Octa_prim-mesh-vertices">
          <input semantic="POSITION" source="#Octa_prim-mesh-positions"/>
        </vertices>
        <triangles count="8">
          <input semantic="VERTEX" source="#Octa_prim-mesh-vertices" offset="0"/>
          <input semantic="NORMAL" source="#Octa_prim-mesh-normals" offset="1"/>
          <input semantic="TEXCOORD" source="#Octa_prim-mesh-map-0" offset="2" set="0"/>
          <p>4 0 0 0 0 1 2 0 2 4 1 3 2 1 4 1 1 5 4 2 6 1 2 7 3 2 8 4 3 9 3 3 10 0 3 11 5 4 12 2 4 13 0 4 14 5 5 15 1 5 16 2 5 17 5 6 18 3 6 19 1 6 20 5 7 21 0 7 22 3 7 23</p>
        </triangles>
      </mesh>
    </geometry>
  </library_geometries>
  <library_controllers/>
  <library_visual_scenes>
    <visual_scene id="Scene" name="Scene">
      <node id="Octa_prim" name="Octa_prim" type="NODE">
        <matrix sid="transform">1 0 0 0 0 1 0 0 0 0 1 0 0 0 0 1</matrix>
        <instance_geometry url="#Octa_prim-mesh" name="Octa_prim"/>
      </node>
    </visual_scene>
  </library_visual_scenes>
  <scene>
    <instance_visual_scene url="#Scene"/>
  </scene>
</COLLADA>