%YAML 1.1
%TAG !u! tag:unity3d.com,2011:
--- !u!21 &2100000
Material:
  serializedVersion: 6
  m_ObjectHideFlags: 0
  m_PrefabParentObject: {fileID: 0}
  m_PrefabInternal: {fileID: 0}
  m_Name: MagicCrystalPurple
  m_Shader: {fileID: 4800000, guid: 4c5b48e76c3e60e4c81e91714d6db20c, type: 3}
  m_ShaderKeywords: EnableFresnel EnableLayer0 EnableLayer1 EnableRefraction EnableSpecular
    EnableSurfaceMask
  m_LightmapFlags: 4
  m_EnableInstancingVariants: 0
  m_DoubleSidedGI: 0
  m_CustomRenderQueue: 3000
  stringTagMap: {}
  disabledShaderPasses: []
  m_SavedProperties:
    serializedVersion: 3
    m_TexEnvs:
    - _BumpMap:
        m_Texture: {fileID: 0}
        m_Scale: {x: 1, y: 1}
        m_Offset: {x: 0, y: 0}
    - _CausticMap:
        m_Texture: {fileID: 0}
        m_Scale: {x: 1, y: 1}
        m_Offset: {x: 0, y: 0}
    - _DetailAlbedoMap:
        m_Texture: {fileID: 0}
        m_Scale: {x: 1, y: 1}
        m_Offset: {x: 0, y: 0}
    - _DetailMask:
        m_Texture: {fileID: 0}
        m_Scale: {x: 1, y: 1}
        m_Offset: {x: 0, y: 0}
    - _DetailNormalMap:
        m_Texture: {fileID: 0}
        m_Scale: {x: 1, y: 1}
        m_Offset: {x: 0, y: 0}
    - _EmissionMap:
        m_Texture: {fileID: 0}
        m_Scale: {x: 1, y: 1}
        m_Offset: {x: 0, y: 0}
    - _Layer0Tex:
        m_Texture: {fileID: 2800000, guid: 21a9db2103b87ca4abea1d615db9beeb, type: 3}
        m_Scale: {x: 2, y: 2}
        m_Offset: {x: 0, y: 0}
    - _Layer1Tex:
        m_Texture: {fileID: 2800000, guid: 21a9db2103b87ca4abea1d615db9beeb, type: 3}
        m_Scale: {x: 1, y: 1}
        m_Offset: {x: 0, y: 0}
    - _Layer2Tex:
        m_Texture: {fileID: 0}
        m_Scale: {x: 1, y: 1}
        m_Offset: {x: 0, y: 0}
    - _MainTex:
        m_Texture: {fileID: 0}
        m_Scale: {x: 1, y: 1}
        m_Offset: {x: 0, y: 0}
    - _MarbleTex:
        m_Texture: {fileID: 2800000, guid: 21a9db2103b87ca4abea1d615db9beeb, type: 3}
        m_Scale: {x: 1, y: 1}
        m_Offset: {x: 0, y: 0}
    - _MetallicGlossMap:
        m_Texture: {fileID: 0}
        m_Scale: {x: 1, y: 1}
        m_Offset: {x: 0, y: 0}
    - _OcclusionMap:
        m_Texture: {fileID: 0}
        m_Scale: {x: 1, y: 1}
        m_Offset: {x: 0, y: 0}
    - _ParallaxMap:
        m_Texture: {fileID: 0}
        m_Scale: {x: 1, y: 1}
        m_Offset: {x: 0, y: 0}
    - _SurfaceAlphaMaskTex:
        m_Texture: {fileID: 2800000, guid: 8910b01af054a8847b4932566253d794, type: 3}
        m_Scale: {x: 1, y: 1}
        m_Offset: {x: 0, y: 0}
    m_Floats:
    - _BumpScale: 1
    - _CausticBrightness: 0.26
    - _CausticScrollSpeed: -0.3
    - _Cutoff: 0.5
    - _DetailNormalMapScale: 1
    - _DstBlend: 0
    - _EnableCaustic: 0
    - _EnableFresnel: 1
    - _EnableFresnelUseSkybox: 0
    - _EnableInnerLight: 0
    - _EnableLayer0: 1
    - _EnableLayer1: 1
    - _EnableLayer2: 0
    - _EnableRefraction: 1
    - _EnableSpecular: 1
    - _EnableSurfaceMask: 1
    - _FresnelTightness: 0.57
    - _GlossMapScale: 1
    - _Glossiness: 0.5
    - _GlossyReflections: 1
    - _HeightBias: 0.1
    - _HeightBiasStep: 0.1
    - _HeightScale: 0.1
    - _InnerLightTightness: 0.1
    - _Layer0Speed: 0
    - _Layer0SpeedX: 0
    - _Layer0SpeedY: -1
    - _Layer1Speed: 0
    - _Layer1SpeedX: 0
    - _Layer1SpeedY: 0.5
    - _Layer2Speed: 0
    - _Layer2SpeedX: 0
    - _Layer2SpeedY: 0
    - _LayerDepthFalloff: 0.503
    - _LayerHeightBias: 0.0624
    - _LayerHeightBiasStep: 0.058
    - _LayerSpeed: 0
    - _MarbleHeightCausticOffset: 0
    - _MarbleHeightScale: 0.2
    - _Metallic: 0
    - _Mode: 0
    - _OcclusionStrength: 1
    - _Parallax: 0.02
    - _RefractionStrength: 0.5
    - _SmoothnessTextureChannel: 0
    - _SpecularBrightness: 1
    - _SpecularHighlights: 1
    - _SpecularTightness: 32
    - _SrcBlend: 1
    - _UVSec: 0
    - _ZWrite: 1
    m_Colors:
    - _CausticTint: {r: 0.037846025, g: 0.16416298, b: 0.20588237, a: 1}
    - _Color: {r: 1, g: 1, b: 1, a: 1}
    - _EmissionColor: {r: 0, g: 0, b: 0, a: 1}
    - _FresnelColorInside: {r: 0, g: 0.5448277, b: 1, a: 1}
    - _FresnelColorOutside: {r: 1, g: 1, b: 1, a: 1}
    - _InnerLightColorInside: {r: 1, g: 1, b: 1, a: 1}
    - _InnerLightColorOutside: {r: 0, g: 0, b: 0, a: 1}
    - _Layer0Tint: {r: 0.41046715, g: 0.72073144, b: 0.7647059, a: 1}
    - _Layer1Tint: {r: 1, g: 1, b: 1, a: 1}
    - _Layer2Tint: {r: 1, g: 1, b: 1, a: 1}
    - _MeiosisPos: {r: 0, g: 0, b: 0, a: 0}
    - _MyVector: {r: 0, g: 0, b: 0, a: 0}
    - _SurfaceAlphaColor: {r: 0.41997978, g: 0.022058845, b: 1, a: 1}
